[{
    "title": "Web development",
    "text": "We will help define exactly what your organization wants through its website. It can also be a structured web application with a fully dynamic Content Management System (CMS) that can be used by anyone with any level of IT knowledge."
}]